%YAML 1.1
%TAG !u! tag:unity3d.com,2011:
--- !u!1001 &100100000
Prefab:
  m_ObjectHideFlags: 1
  serializedVersion: 2
  m_Modification:
    m_TransformParent: {fileID: 0}
    m_Modifications: []
    m_RemovedComponents: []
  m_SourcePrefab: {fileID: 0}
  m_RootGameObject: {fileID: 1120709564031368}
  m_IsPrefabAsset: 1
--- !u!1 &1120709564031368
GameObject:
  m_ObjectHideFlags: 0
  m_CorrespondingSourceObject: {fileID: 0}
  m_PrefabInternal: {fileID: 100100000}
  serializedVersion: 6
  m_Component:
  - component: {fileID: 4246328288456884}
  - component: {fileID: 2569400265443789562}
  m_Layer: 31
  m_Name: DecoratePallete
  m_TagString: Untagged
  m_Icon: {fileID: 0}
  m_NavMeshLayer: 0
  m_StaticEditorFlags: 0
  m_IsActive: 1
--- !u!1 &1897781377125582
GameObject:
  m_ObjectHideFlags: 0
  m_CorrespondingSourceObject: {fileID: 0}
  m_PrefabInternal: {fileID: 100100000}
  serializedVersion: 6
  m_Component:
  - component: {fileID: 4376797346243408}
  - component: {fileID: 8195094281807337832}
  - component: {fileID: 3664157346360055256}
  m_Layer: 31
  m_Name: Layer1
  m_TagString: Untagged
  m_Icon: {fileID: 0}
  m_NavMeshLayer: 0
  m_StaticEditorFlags: 0
  m_IsActive: 1
--- !u!4 &4246328288456884
Transform:
  m_ObjectHideFlags: 1
  m_CorrespondingSourceObject: {fileID: 0}
  m_PrefabInternal: {fileID: 100100000}
  m_GameObject: {fileID: 1120709564031368}
  m_LocalRotation: {x: 0, y: 0, z: 0, w: 1}
  m_LocalPosition: {x: 0, y: 0, z: 0}
  m_LocalScale: {x: 1, y: 1, z: 1}
  m_Children:
  - {fileID: 4376797346243408}
  m_Father: {fileID: 0}
  m_RootOrder: 0
  m_LocalEulerAnglesHint: {x: 0, y: 0, z: 0}
--- !u!4 &4376797346243408
Transform:
  m_ObjectHideFlags: 1
  m_CorrespondingSourceObject: {fileID: 0}
  m_PrefabInternal: {fileID: 100100000}
  m_GameObject: {fileID: 1897781377125582}
  m_LocalRotation: {x: -0, y: -0, z: -0, w: 1}
  m_LocalPosition: {x: 0, y: 0, z: 0}
  m_LocalScale: {x: 1, y: 1, z: 1}
  m_Children: []
  m_Father: {fileID: 4246328288456884}
  m_RootOrder: 0
  m_LocalEulerAnglesHint: {x: 0, y: 0, z: 0}
--- !u!114 &114605739088917230
MonoBehaviour:
  m_ObjectHideFlags: 0
  m_CorrespondingSourceObject: {fileID: 0}
  m_PrefabInternal: {fileID: 0}
  m_GameObject: {fileID: 0}
  m_Enabled: 1
  m_EditorHideFlags: 1
  m_Script: {fileID: 12395, guid: 0000000000000000e000000000000000, type: 0}
  m_Name: Palette Settings
  m_EditorClassIdentifier: 
  cellSizing: 0
--- !u!156049354 &2569400265443789562
Grid:
  m_ObjectHideFlags: 1
  m_CorrespondingSourceObject: {fileID: 0}
  m_PrefabInternal: {fileID: 100100000}
  m_GameObject: {fileID: 1120709564031368}
  m_Enabled: 1
  m_CellSize: {x: 2, y: 2, z: 0}
  m_CellGap: {x: 0, y: 0, z: 0}
  m_CellLayout: 0
  m_CellSwizzle: 0
--- !u!483693784 &3664157346360055256
TilemapRenderer:
  m_ObjectHideFlags: 1
  m_CorrespondingSourceObject: {fileID: 0}
  m_PrefabInternal: {fileID: 100100000}
  m_GameObject: {fileID: 1897781377125582}
  m_Enabled: 0
  m_CastShadows: 0
  m_ReceiveShadows: 0
  m_DynamicOccludee: 0
  m_MotionVectors: 1
  m_LightProbeUsage: 0
  m_ReflectionProbeUsage: 0
  m_RenderingLayerMask: 4294967295
  m_Materials:
  - {fileID: 10754, guid: 0000000000000000f000000000000000, type: 0}
  m_StaticBatchInfo:
    firstSubMesh: 0
    subMeshCount: 0
  m_StaticBatchRoot: {fileID: 0}
  m_ProbeAnchor: {fileID: 0}
  m_LightProbeVolumeOverride: {fileID: 0}
  m_ScaleInLightmap: 1
  m_PreserveUVs: 0
  m_IgnoreNormalsForChartDetection: 0
  m_ImportantGI: 0
  m_StitchLightmapSeams: 0
  m_SelectedEditorRenderState: 0
  m_MinimumChartSize: 4
  m_AutoUVMaxDistance: 0.5
  m_AutoUVMaxAngle: 89
  m_LightmapParameters: {fileID: 0}
  m_SortingLayerID: 0
  m_SortingLayer: 0
  m_SortingOrder: 0
  m_ChunkSize: {x: 32, y: 32, z: 32}
  m_ChunkCullingBounds: {x: 0, y: 0, z: 0}
  m_MaxChunkCount: 16
  m_MaxFrameAge: 16
  m_SortOrder: 0
  m_DetectChunkCullingBounds: 0
  m_MaskInteraction: 0
--- !u!1839735485 &8195094281807337832
Tilemap:
  m_ObjectHideFlags: 1
  m_CorrespondingSourceObject: {fileID: 0}
  m_PrefabInternal: {fileID: 100100000}
  m_GameObject: {fileID: 1897781377125582}
  m_Enabled: 1
  m_Tiles:
  - first: {x: -6, y: -16, z: 0}
    second:
      m_TileIndex: 56
      m_TileSpriteIndex: 56
      m_TileMatrixIndex: 0
      m_TileColorIndex: 0
      m_ObjectToInstantiate: {fileID: 0}
      m_TileFlags: 1
      m_ColliderType: 1
  - first: {x: -5, y: -16, z: 0}
    second:
      m_TileIndex: 55
      m_TileSpriteIndex: 55
      m_TileMatrixIndex: 0
      m_TileColorIndex: 0
      m_ObjectToInstantiate: {fileID: 0}
      m_TileFlags: 1
      m_ColliderType: 1
  - first: {x: -6, y: -15, z: 0}
    second:
      m_TileIndex: 53
      m_TileSpriteIndex: 53
      m_TileMatrixIndex: 0
      m_TileColorIndex: 0
      m_ObjectToInstantiate: {fileID: 0}
      m_TileFlags: 1
      m_ColliderType: 1
  - first: {x: -5, y: -15, z: 0}
    second:
      m_TileIndex: 54
      m_TileSpriteIndex: 54
      m_TileMatrixIndex: 0
      m_TileColorIndex: 0
      m_ObjectToInstantiate: {fileID: 0}
      m_TileFlags: 1
      m_ColliderType: 1
  - first: {x: 3, y: -15, z: 0}
    second:
      m_TileIndex: 71
      m_TileSpriteIndex: 71
      m_TileMatrixIndex: 0
      m_TileColorIndex: 0
      m_ObjectToInstantiate: {fileID: 0}
      m_TileFlags: 1
      m_ColliderType: 1
  - first: {x: 4, y: -15, z: 0}
    second:
      m_TileIndex: 69
      m_TileSpriteIndex: 69
      m_TileMatrixIndex: 0
      m_TileColorIndex: 0
      m_ObjectToInstantiate: {fileID: 0}
      m_TileFlags: 1
      m_ColliderType: 1
  - first: {x: 5, y: -15, z: 0}
    second:
      m_TileIndex: 70
      m_TileSpriteIndex: 70
      m_TileMatrixIndex: 0
      m_TileColorIndex: 0
      m_ObjectToInstantiate: {fileID: 0}
      m_TileFlags: 1
      m_ColliderType: 1
  - first: {x: 3, y: -14, z: 0}
    second:
      m_TileIndex: 63
      m_TileSpriteIndex: 63
      m_TileMatrixIndex: 0
      m_TileColorIndex: 0
      m_ObjectToInstantiate: {fileID: 0}
      m_TileFlags: 1
      m_ColliderType: 1
  - first: {x: 4, y: -14, z: 0}
    second:
      m_TileIndex: 64
      m_TileSpriteIndex: 64
      m_TileMatrixIndex: 0
      m_TileColorIndex: 0
      m_ObjectToInstantiate: {fileID: 0}
      m_TileFlags: 1
      m_ColliderType: 1
  - first: {x: 5, y: -14, z: 0}
    second:
      m_TileIndex: 65
      m_TileSpriteIndex: 65
      m_TileMatrixIndex: 0
      m_TileColorIndex: 0
      m_ObjectToInstantiate: {fileID: 0}
      m_TileFlags: 1
      m_ColliderType: 1
  - first: {x: 8, y: -14, z: 0}
    second:
      m_TileIndex: 81
      m_TileSpriteIndex: 81
      m_TileMatrixIndex: 0
      m_TileColorIndex: 0
      m_ObjectToInstantiate: {fileID: 0}
      m_TileFlags: 1
      m_ColliderType: 1
  - first: {x: 9, y: -14, z: 0}
    second:
      m_TileIndex: 82
      m_TileSpriteIndex: 82
      m_TileMatrixIndex: 0
      m_TileColorIndex: 0
      m_ObjectToInstantiate: {fileID: 0}
      m_TileFlags: 1
      m_ColliderType: 1
  - first: {x: 3, y: -13, z: 0}
    second:
      m_TileIndex: 68
      m_TileSpriteIndex: 68
      m_TileMatrixIndex: 0
      m_TileColorIndex: 0
      m_ObjectToInstantiate: {fileID: 0}
      m_TileFlags: 1
      m_ColliderType: 1
  - first: {x: 4, y: -13, z: 0}
    second:
      m_TileIndex: 67
      m_TileSpriteIndex: 67
      m_TileMatrixIndex: 0
      m_TileColorIndex: 0
      m_ObjectToInstantiate: {fileID: 0}
      m_TileFlags: 1
      m_ColliderType: 1
  - first: {x: 5, y: -13, z: 0}
    second:
      m_TileIndex: 66
      m_TileSpriteIndex: 66
      m_TileMatrixIndex: 0
      m_TileColorIndex: 0
      m_ObjectToInstantiate: {fileID: 0}
      m_TileFlags: 1
      m_ColliderType: 1
  - first: {x: 8, y: -13, z: 0}
    second:
      m_TileIndex: 79
      m_TileSpriteIndex: 79
      m_TileMatrixIndex: 0
      m_TileColorIndex: 0
      m_ObjectToInstantiate: {fileID: 0}
      m_TileFlags: 1
      m_ColliderType: 1
  - first: {x: 9, y: -13, z: 0}
    second:
      m_TileIndex: 80
      m_TileSpriteIndex: 80
      m_TileMatrixIndex: 0
      m_TileColorIndex: 0
      m_ObjectToInstantiate: {fileID: 0}
      m_TileFlags: 1
      m_ColliderType: 1
  - first: {x: -9, y: -12, z: 0}
    second:
      m_TileIndex: 49
      m_TileSpriteIndex: 49
      m_TileMatrixIndex: 0
      m_TileColorIndex: 0
      m_ObjectToInstantiate: {fileID: 0}
      m_TileFlags: 1
      m_ColliderType: 1
  - first: {x: -8, y: -12, z: 0}
    second:
      m_TileIndex: 48
      m_TileSpriteIndex: 48
      m_TileMatrixIndex: 0
      m_TileColorIndex: 0
      m_ObjectToInstantiate: {fileID: 0}
      m_TileFlags: 1
      m_ColliderType: 1
  - first: {x: -7, y: -12, z: 0}
    second:
      m_TileIndex: 46
      m_TileSpriteIndex: 46
      m_TileMatrixIndex: 0
      m_TileColorIndex: 0
      m_ObjectToInstantiate: {fileID: 0}
      m_TileFlags: 1
      m_ColliderType: 1
  - first: {x: 8, y: -12, z: 0}
    second:
      m_TileIndex: 74
      m_TileSpriteIndex: 74
      m_TileMatrixIndex: 0
      m_TileColorIndex: 0
      m_ObjectToInstantiate: {fileID: 0}
      m_TileFlags: 1
      m_ColliderType: 1
  - first: {x: 9, y: -12, z: 0}
    second:
      m_TileIndex: 75
      m_TileSpriteIndex: 75
      m_TileMatrixIndex: 0
      m_TileColorIndex: 0
      m_ObjectToInstantiate: {fileID: 0}
      m_TileFlags: 1
      m_ColliderType: 1
  - first: {x: -9, y: -11, z: 0}
    second:
      m_TileIndex: 45
      m_TileSpriteIndex: 45
      m_TileMatrixIndex: 0
      m_TileColorIndex: 0
      m_ObjectToInstantiate: {fileID: 0}
      m_TileFlags: 1
      m_ColliderType: 1
  - first: {x: -8, y: -11, z: 0}
    second:
      m_TileIndex: 50
      m_TileSpriteIndex: 50
      m_TileMatrixIndex: 0
      m_TileColorIndex: 0
      m_ObjectToInstantiate: {fileID: 0}
      m_TileFlags: 1
      m_ColliderType: 1
  - first: {x: -7, y: -11, z: 0}
    second:
      m_TileIndex: 47
      m_TileSpriteIndex: 47
      m_TileMatrixIndex: 0
      m_TileColorIndex: 0
      m_ObjectToInstantiate: {fileID: 0}
      m_TileFlags: 1
      m_ColliderType: 1
  - first: {x: -3, y: -11, z: 0}
    second:
      m_TileIndex: 51
      m_TileSpriteIndex: 51
      m_TileMatrixIndex: 0
      m_TileColorIndex: 0
      m_ObjectToInstantiate: {fileID: 0}
      m_TileFlags: 1
      m_ColliderType: 1
  - first: {x: -2, y: -11, z: 0}
    second:
      m_TileIndex: 52
      m_TileSpriteIndex: 52
      m_TileMatrixIndex: 0
      m_TileColorIndex: 0
      m_ObjectToInstantiate: {fileID: 0}
      m_TileFlags: 1
      m_ColliderType: 1
  - first: {x: 3, y: -11, z: 0}
    second:
      m_TileIndex: 57
      m_TileSpriteIndex: 57
      m_TileMatrixIndex: 0
      m_TileColorIndex: 0
      m_ObjectToInstantiate: {fileID: 0}
      m_TileFlags: 1
      m_ColliderType: 1
  - first: {x: 4, y: -11, z: 0}
    second:
      m_TileIndex: 58
      m_TileSpriteIndex: 58
      m_TileMatrixIndex: 0
      m_TileColorIndex: 0
      m_ObjectToInstantiate: {fileID: 0}
      m_TileFlags: 1
      m_ColliderType: 1
  - first: {x: 5, y: -11, z: 0}
    second:
      m_TileIndex: 59
      m_TileSpriteIndex: 59
      m_TileMatrixIndex: 0
      m_TileColorIndex: 0
      m_ObjectToInstantiate: {fileID: 0}
      m_TileFlags: 1
      m_ColliderType: 1
  - first: {x: 8, y: -11, z: 0}
    second:
      m_TileIndex: 72
      m_TileSpriteIndex: 72
      m_TileMatrixIndex: 0
      m_TileColorIndex: 0
      m_ObjectToInstantiate: {fileID: 0}
      m_TileFlags: 1
      m_ColliderType: 1
  - first: {x: 9, y: -11, z: 0}
    second:
      m_TileIndex: 73
      m_TileSpriteIndex: 73
      m_TileMatrixIndex: 0
      m_TileColorIndex: 0
      m_ObjectToInstantiate: {fileID: 0}
      m_TileFlags: 1
      m_ColliderType: 1
  - first: {x: -9, y: -10, z: 0}
    second:
      m_TileIndex: 42
      m_TileSpriteIndex: 42
      m_TileMatrixIndex: 0
      m_TileColorIndex: 0
      m_ObjectToInstantiate: {fileID: 0}
      m_TileFlags: 1
      m_ColliderType: 1
  - first: {x: -8, y: -10, z: 0}
    second:
      m_TileIndex: 43
      m_TileSpriteIndex: 43
      m_TileMatrixIndex: 0
      m_TileColorIndex: 0
      m_ObjectToInstantiate: {fileID: 0}
      m_TileFlags: 1
      m_ColliderType: 1
  - first: {x: -7, y: -10, z: 0}
    second:
      m_TileIndex: 44
      m_TileSpriteIndex: 44
      m_TileMatrixIndex: 0
      m_TileColorIndex: 0
      m_ObjectToInstantiate: {fileID: 0}
      m_TileFlags: 1
      m_ColliderType: 1
  - first: {x: 3, y: -10, z: 0}
    second:
      m_TileIndex: 60
      m_TileSpriteIndex: 60
      m_TileMatrixIndex: 0
      m_TileColorIndex: 0
      m_ObjectToInstantiate: {fileID: 0}
      m_TileFlags: 1
      m_ColliderType: 1
  - first: {x: 4, y: -10, z: 0}
    second:
      m_TileIndex: 61
      m_TileSpriteIndex: 61
      m_TileMatrixIndex: 0
      m_TileColorIndex: 0
      m_ObjectToInstantiate: {fileID: 0}
      m_TileFlags: 1
      m_ColliderType: 1
  - first: {x: 5, y: -10, z: 0}
    second:
      m_TileIndex: 62
      m_TileSpriteIndex: 62
      m_TileMatrixIndex: 0
      m_TileColorIndex: 0
      m_ObjectToInstantiate: {fileID: 0}
      m_TileFlags: 1
      m_ColliderType: 1
  - first: {x: 3, y: -9, z: 0}
    second:
      m_TileIndex: 76
      m_TileSpriteIndex: 76
      m_TileMatrixIndex: 0
      m_TileColorIndex: 0
      m_ObjectToInstantiate: {fileID: 0}
      m_TileFlags: 1
      m_ColliderType: 1
  - first: {x: 4, y: -9, z: 0}
    second:
      m_TileIndex: 77
      m_TileSpriteIndex: 77
      m_TileMatrixIndex: 0
      m_TileColorIndex: 0
      m_ObjectToInstantiate: {fileID: 0}
      m_TileFlags: 1
      m_ColliderType: 1
  - first: {x: 5, y: -9, z: 0}
    second:
      m_TileIndex: 78
      m_TileSpriteIndex: 78
      m_TileMatrixIndex: 0
      m_TileColorIndex: 0
      m_ObjectToInstantiate: {fileID: 0}
      m_TileFlags: 1
      m_ColliderType: 1
  - first: {x: -11, y: -8, z: 0}
    second:
      m_TileIndex: 83
      m_TileSpriteIndex: 83
      m_TileMatrixIndex: 0
      m_TileColorIndex: 0
      m_ObjectToInstantiate: {fileID: 0}
      m_TileFlags: 1
      m_ColliderType: 1
  - first: {x: -2, y: -7, z: 0}
    second:
      m_TileIndex: 29
      m_TileSpriteIndex: 29
      m_TileMatrixIndex: 0
      m_TileColorIndex: 0
      m_ObjectToInstantiate: {fileID: 0}
      m_TileFlags: 1
      m_ColliderType: 1
  - first: {x: 1, y: -7, z: 0}
    second:
      m_TileIndex: 31
      m_TileSpriteIndex: 31
      m_TileMatrixIndex: 0
      m_TileColorIndex: 0
      m_ObjectToInstantiate: {fileID: 0}
      m_TileFlags: 1
      m_ColliderType: 1
  - first: {x: 5, y: -7, z: 0}
    second:
      m_TileIndex: 39
      m_TileSpriteIndex: 39
      m_TileMatrixIndex: 0
      m_TileColorIndex: 0
      m_ObjectToInstantiate: {fileID: 0}
      m_TileFlags: 1
      m_ColliderType: 1
  - first: {x: 6, y: -7, z: 0}
    second:
      m_TileIndex: 40
      m_TileSpriteIndex: 40
      m_TileMatrixIndex: 0
      m_TileColorIndex: 0
      m_ObjectToInstantiate: {fileID: 0}
      m_TileFlags: 1
      m_ColliderType: 1
  - first: {x: -8, y: -6, z: 0}
    second:
      m_TileIndex: 12
      m_TileSpriteIndex: 12
      m_TileMatrixIndex: 0
      m_TileColorIndex: 0
      m_ObjectToInstantiate: {fileID: 0}
      m_TileFlags: 1
      m_ColliderType: 1
  - first: {x: -6, y: -6, z: 0}
    second:
      m_TileIndex: 19
      m_TileSpriteIndex: 19
      m_TileMatrixIndex: 0
      m_TileColorIndex: 0
      m_ObjectToInstantiate: {fileID: 0}
      m_TileFlags: 1
      m_ColliderType: 1
  - first: {x: -4, y: -6, z: 0}
    second:
      m_TileIndex: 24
      m_TileSpriteIndex: 24
      m_TileMatrixIndex: 0
      m_TileColorIndex: 0
      m_ObjectToInstantiate: {fileID: 0}
      m_TileFlags: 1
      m_ColliderType: 1
  - first: {x: -3, y: -6, z: 0}
    second:
      m_TileIndex: 25
      m_TileSpriteIndex: 25
      m_TileMatrixIndex: 0
      m_TileColorIndex: 0
      m_ObjectToInstantiate: {fileID: 0}
      m_TileFlags: 1
      m_ColliderType: 1
  - first: {x: -2, y: -6, z: 0}
    second:
      m_TileIndex: 30
      m_TileSpriteIndex: 30
      m_TileMatrixIndex: 0
      m_TileColorIndex: 0
      m_ObjectToInstantiate: {fileID: 0}
      m_TileFlags: 1
      m_ColliderType: 1
  - first: {x: 0, y: -6, z: 0}
    second:
      m_TileIndex: 26
      m_TileSpriteIndex: 26
      m_TileMatrixIndex: 0
      m_TileColorIndex: 0
      m_ObjectToInstantiate: {fileID: 0}
      m_TileFlags: 1
      m_ColliderType: 1
  - first: {x: 2, y: -6, z: 0}
    second:
      m_TileIndex: 32
      m_TileSpriteIndex: 32
      m_TileMatrixIndex: 0
      m_TileColorIndex: 0
      m_ObjectToInstantiate: {fileID: 0}
      m_TileFlags: 1
      m_ColliderType: 1
  - first: {x: 5, y: -6, z: 0}
    second:
      m_TileIndex: 38
      m_TileSpriteIndex: 38
      m_TileMatrixIndex: 0
      m_TileColorIndex: 0
      m_ObjectToInstantiate: {fileID: 0}
      m_TileFlags: 1
      m_ColliderType: 1
  - first: {x: 6, y: -6, z: 0}
    second:
      m_TileIndex: 37
      m_TileSpriteIndex: 37
      m_TileMatrixIndex: 0
      m_TileColorIndex: 0
      m_ObjectToInstantiate: {fileID: 0}
      m_TileFlags: 1
      m_ColliderType: 1
  - first: {x: -9, y: -5, z: 0}
    second:
      m_TileIndex: 15
      m_TileSpriteIndex: 15
      m_TileMatrixIndex: 0
      m_TileColorIndex: 0
      m_ObjectToInstantiate: {fileID: 0}
      m_TileFlags: 1
      m_ColliderType: 1
  - first: {x: -6, y: -5, z: 0}
    second:
      m_TileIndex: 41
      m_TileSpriteIndex: 41
      m_TileMatrixIndex: 0
      m_TileColorIndex: 0
      m_ObjectToInstantiate: {fileID: 0}
      m_TileFlags: 1
      m_ColliderType: 1
  - first: {x: -2, y: -5, z: 0}
    second:
      m_TileIndex: 20
      m_TileSpriteIndex: 20
      m_TileMatrixIndex: 0
      m_TileColorIndex: 0
      m_ObjectToInstantiate: {fileID: 0}
      m_TileFlags: 1
      m_ColliderType: 1
  - first: {x: 5, y: -5, z: 0}
    second:
      m_TileIndex: 36
      m_TileSpriteIndex: 36
      m_TileMatrixIndex: 0
      m_TileColorIndex: 0
      m_ObjectToInstantiate: {fileID: 0}
      m_TileFlags: 1
      m_ColliderType: 1
  - first: {x: 6, y: -5, z: 0}
    second:
      m_TileIndex: 35
      m_TileSpriteIndex: 35
      m_TileMatrixIndex: 0
      m_TileColorIndex: 0
      m_ObjectToInstantiate: {fileID: 0}
      m_TileFlags: 1
      m_ColliderType: 1
  - first: {x: -9, y: -4, z: 0}
    second:
      m_TileIndex: 16
      m_TileSpriteIndex: 16
      m_TileMatrixIndex: 0
      m_TileColorIndex: 0
      m_ObjectToInstantiate: {fileID: 0}
      m_TileFlags: 1
      m_ColliderType: 1
  - first: {x: -6, y: -4, z: 0}
    second:
      m_TileIndex: 18
      m_TileSpriteIndex: 18
      m_TileMatrixIndex: 0
      m_TileColorIndex: 0
      m_ObjectToInstantiate: {fileID: 0}
      m_TileFlags: 1
      m_ColliderType: 1
  - first: {x: -4, y: -4, z: 0}
    second:
      m_TileIndex: 22
      m_TileSpriteIndex: 22
      m_TileMatrixIndex: 0
      m_TileColorIndex: 0
      m_ObjectToInstantiate: {fileID: 0}
      m_TileFlags: 1
      m_ColliderType: 1
  - first: {x: -2, y: -4, z: 0}
    second:
      m_TileIndex: 21
      m_TileSpriteIndex: 21
      m_TileMatrixIndex: 0
      m_TileColorIndex: 0
      m_ObjectToInstantiate: {fileID: 0}
      m_TileFlags: 1
      m_ColliderType: 1
  - first: {x: 0, y: -4, z: 0}
    second:
      m_TileIndex: 27
      m_TileSpriteIndex: 27
      m_TileMatrixIndex: 0
      m_TileColorIndex: 0
      m_ObjectToInstantiate: {fileID: 0}
      m_TileFlags: 1
      m_ColliderType: 1
  - first: {x: 1, y: -4, z: 0}
    second:
      m_TileIndex: 28
      m_TileSpriteIndex: 28
      m_TileMatrixIndex: 0
      m_TileColorIndex: 0
      m_ObjectToInstantiate: {fileID: 0}
      m_TileFlags: 1
      m_ColliderType: 1
  - first: {x: -9, y: -3, z: 0}
    second:
      m_TileIndex: 13
      m_TileSpriteIndex: 13
      m_TileMatrixIndex: 0
      m_TileColorIndex: 0
      m_ObjectToInstantiate: {fileID: 0}
      m_TileFlags: 1
      m_ColliderType: 1
  - first: {x: -8, y: -3, z: 0}
    second:
      m_TileIndex: 11
      m_TileSpriteIndex: 11
      m_TileMatrixIndex: 0
      m_TileColorIndex: 0
      m_ObjectToInstantiate: {fileID: 0}
      m_TileFlags: 1
      m_ColliderType: 1
  - first: {x: -3, y: -3, z: 0}
    second:
      m_TileIndex: 23
      m_TileSpriteIndex: 23
      m_TileMatrixIndex: 0
      m_TileColorIndex: 0
      m_ObjectToInstantiate: {fileID: 0}
      m_TileFlags: 1
      m_ColliderType: 1
  - first: {x: 0, y: -3, z: 0}
    second:
      m_TileIndex: 34
      m_TileSpriteIndex: 34
      m_TileMatrixIndex: 0
      m_TileColorIndex: 0
      m_ObjectToInstantiate: {fileID: 0}
      m_TileFlags: 1
      m_ColliderType: 1
  - first: {x: 1, y: -3, z: 0}
    second:
      m_TileIndex: 33
      m_TileSpriteIndex: 33
      m_TileMatrixIndex: 0
      m_TileColorIndex: 0
      m_ObjectToInstantiate: {fileID: 0}
      m_TileFlags: 1
      m_ColliderType: 1
  - first: {x: -9, y: -2, z: 0}
    second:
      m_TileIndex: 14
      m_TileSpriteIndex: 14
      m_TileMatrixIndex: 0
      m_TileColorIndex: 0
      m_ObjectToInstantiate: {fileID: 0}
      m_TileFlags: 1
      m_ColliderType: 1
  - first: {x: -5, y: -2, z: 0}
    second:
      m_TileIndex: 10
      m_TileSpriteIndex: 10
      m_TileMatrixIndex: 0
      m_TileColorIndex: 0
      m_ObjectToInstantiate: {fileID: 0}
      m_TileFlags: 1
      m_ColliderType: 1
  - first: {x: 1, y: -2, z: 0}
    second:
      m_TileIndex: 10
      m_TileSpriteIndex: 10
      m_TileMatrixIndex: 0
      m_TileColorIndex: 0
      m_ObjectToInstantiate: {fileID: 0}
      m_TileFlags: 1
      m_ColliderType: 1
  - first: {x: -8, y: -1, z: 0}
    second:
      m_TileIndex: 17
      m_TileSpriteIndex: 17
      m_TileMatrixIndex: 0
      m_TileColorIndex: 0
      m_ObjectToInstantiate: {fileID: 0}
      m_TileFlags: 1
      m_ColliderType: 1
  - first: {x: -5, y: -1, z: 0}
    second:
      m_TileIndex: 9
      m_TileSpriteIndex: 9
      m_TileMatrixIndex: 0
      m_TileColorIndex: 0
      m_ObjectToInstantiate: {fileID: 0}
      m_TileFlags: 1
      m_ColliderType: 1
  - first: {x: -2, y: -1, z: 0}
    second:
      m_TileIndex: 1
      m_TileSpriteIndex: 1
      m_TileMatrixIndex: 0
      m_TileColorIndex: 0
      m_ObjectToInstantiate: {fileID: 0}
      m_TileFlags: 1
      m_ColliderType: 1
  - first: {x: 1, y: -1, z: 0}
    second:
      m_TileIndex: 9
      m_TileSpriteIndex: 9
      m_TileMatrixIndex: 0
      m_TileColorIndex: 0
      m_ObjectToInstantiate: {fileID: 0}
      m_TileFlags: 1
      m_ColliderType: 1
  - first: {x: -5, y: 0, z: 0}
    second:
      m_TileIndex: 8
      m_TileSpriteIndex: 8
      m_TileMatrixIndex: 0
      m_TileColorIndex: 0
      m_ObjectToInstantiate: {fileID: 0}
      m_TileFlags: 1
      m_ColliderType: 1
  - first: {x: -4, y: 0, z: 0}
    second:
      m_TileIndex: 5
      m_TileSpriteIndex: 5
      m_TileMatrixIndex: 0
      m_TileColorIndex: 0
      m_ObjectToInstantiate: {fileID: 0}
      m_TileFlags: 1
      m_ColliderType: 1
  - first: {x: -2, y: 0, z: 0}
    second:
      m_TileIndex: 0
      m_TileSpriteIndex: 0
      m_TileMatrixIndex: 0
      m_TileColorIndex: 0
      m_ObjectToInstantiate: {fileID: 0}
      m_TileFlags: 1
      m_ColliderType: 1
  - first: {x: 0, y: 0, z: 0}
    second:
      m_TileIndex: 4
      m_TileSpriteIndex: 4
      m_TileMatrixIndex: 0
      m_TileColorIndex: 0
      m_ObjectToInstantiate: {fileID: 0}
      m_TileFlags: 1
      m_ColliderType: 1
  - first: {x: 1, y: 0, z: 0}
    second:
      m_TileIndex: 8
      m_TileSpriteIndex: 8
      m_TileMatrixIndex: 0
      m_TileColorIndex: 0
      m_ObjectToInstantiate: {fileID: 0}
      m_TileFlags: 1
      m_ColliderType: 1
  - first: {x: -5, y: 1, z: 0}
    second:
      m_TileIndex: 6
      m_TileSpriteIndex: 6
      m_TileMatrixIndex: 0
      m_TileColorIndex: 0
      m_ObjectToInstantiate: {fileID: 0}
      m_TileFlags: 1
      m_ColliderType: 1
  - first: {x: -4, y: 1, z: 0}
    second:
      m_TileIndex: 7
      m_TileSpriteIndex: 7
      m_TileMatrixIndex: 0
      m_TileColorIndex: 0
      m_ObjectToInstantiate: {fileID: 0}
      m_TileFlags: 1
      m_ColliderType: 1
  - first: {x: 0, y: 1, z: 0}
    second:
      m_TileIndex: 3
      m_TileSpriteIndex: 3
      m_TileMatrixIndex: 0
      m_TileColorIndex: 0
      m_ObjectToInstantiate: {fileID: 0}
      m_TileFlags: 1
      m_ColliderType: 1
  - first: {x: 1, y: 1, z: 0}
    second:
      m_TileIndex: 2
      m_TileSpriteIndex: 2
      m_TileMatrixIndex: 0
      m_TileColorIndex: 0
      m_ObjectToInstantiate: {fileID: 0}
      m_TileFlags: 1
      m_ColliderType: 1
  m_AnimatedTiles: {}
  m_TileAssetArray:
  - m_RefCount: 1
    m_Data: {fileID: 11400000, guid: 8496bf3f2c5da804ea17169ee357120d, type: 2}
  - m_RefCount: 1
    m_Data: {fileID: 11400000, guid: 9cae954983864994389c25b1938f31ce, type: 2}
  - m_RefCount: 1
    m_Data: {fileID: 11400000, guid: 836f1884abe88c742b994b870cff0935, type: 2}
  - m_RefCount: 1
    m_Data: {fileID: 11400000, guid: 2caa4e9690059754393d9dc3b2957376, type: 2}
  - m_RefCount: 1
    m_Data: {fileID: 11400000, guid: 1c1d5b85f745a9640aadff191f3b9f39, type: 2}
  - m_RefCount: 1
    m_Data: {fileID: 11400000, guid: 29c09ca1775515544b3beb93c1db111d, type: 2}
  - m_RefCount: 1
    m_Data: {fileID: 11400000, guid: 2b27f6daf93e4f54c8b3b8b21579f5ee, type: 2}
  - m_RefCount: 1
    m_Data: {fileID: 11400000, guid: cac3e7213e0ee31428bc4c2034447369, type: 2}
  - m_RefCount: 2
    m_Data: {fileID: 11400000, guid: f7bc5c6489e454f4c8611dbfc3086682, type: 2}
  - m_RefCount: 2
    m_Data: {fileID: 11400000, guid: 2d8c507c2ffb89d4b94e45cbd1a91180, type: 2}
  - m_RefCount: 2
    m_Data: {fileID: 11400000, guid: 452895f01ccaf4f408f41d1a2f7a90f2, type: 2}
  - m_RefCount: 1
    m_Data: {fileID: 11400000, guid: ace882ea913ba934ea8f7d3f6e2e3e3d, type: 2}
  - m_RefCount: 1
    m_Data: {fileID: 11400000, guid: 086e8748dc179c74eaaae941bbe9a304, type: 2}
  - m_RefCount: 1
    m_Data: {fileID: 11400000, guid: 3686a4a71a8770a4d9cedfa960415856, type: 2}
  - m_RefCount: 1
    m_Data: {fileID: 11400000, guid: 3cf301b757b4de44094262db34e99c92, type: 2}
  - m_RefCount: 1
    m_Data: {fileID: 11400000, guid: bcf8e6571b5a34a45a2b711cbf09f486, type: 2}
  - m_RefCount: 1
    m_Data: {fileID: 11400000, guid: b14d09f3b5d26e541b8656f76aa73062, type: 2}
  - m_RefCount: 1
    m_Data: {fileID: 11400000, guid: 40b675a216950ed4b8cc2a0af4592a1f, type: 2}
  - m_RefCount: 1
    m_Data: {fileID: 11400000, guid: 1a0744d34a938534d974c95d7ccb0c45, type: 2}
  - m_RefCount: 1
    m_Data: {fileID: 11400000, guid: 96b26f8dd14b7e24998cb1a92834ea84, type: 2}
  - m_RefCount: 1
    m_Data: {fileID: 11400000, guid: 26ce775757373eb48a78067278cc9a79, type: 2}
  - m_RefCount: 1
    m_Data: {fileID: 11400000, guid: 9e712e40fa3fd2543a66ebec97d497e3, type: 2}
  - m_RefCount: 1
    m_Data: {fileID: 11400000, guid: b336964c136bccf49bda2dd53dd55897, type: 2}
  - m_RefCount: 1
    m_Data: {fileID: 11400000, guid: 8cd39f9ba5a42404dbb9799f0a1df324, type: 2}
  - m_RefCount: 1
    m_Data: {fileID: 11400000, guid: c3df6274ef146f54d92275f3942daafc, type: 2}
  - m_RefCount: 1
    m_Data: {fileID: 11400000, guid: 62e24b3682d3d864fb2fc88e13ccdbf4, type: 2}
  - m_RefCount: 1
    m_Data: {fileID: 11400000, guid: d0fbc940b0900834e9401c294aa386cc, type: 2}
  - m_RefCount: 1
    m_Data: {fileID: 11400000, guid: 03c94eff8ac7f904485bdf0a9dd184cc, type: 2}
  - m_RefCount: 1
    m_Data: {fileID: 11400000, guid: 6fbaa331ded30a446916514365caf37f, type: 2}
  - m_RefCount: 1
    m_Data: {fileID: 11400000, guid: 969eb21c1eff22f48a2f7a2a226049ff, type: 2}
  - m_RefCount: 1
    m_Data: {fileID: 11400000, guid: e14fd97ad6c1c064fa623b57f7b572bb, type: 2}
  - m_RefCount: 1
    m_Data: {fileID: 11400000, guid: 2f7a00a7054592d45b8f1dacb57c6400, type: 2}
  - m_RefCount: 1
    m_Data: {fileID: 11400000, guid: c84a1dd767b93294ca9698b515699e12, type: 2}
  - m_RefCount: 1
    m_Data: {fileID: 11400000, guid: a7c6f449b79b4dd49a7832e58b9f34fc, type: 2}
  - m_RefCount: 1
    m_Data: {fileID: 11400000, guid: 82f544c091abc364abe28a8589a7cf45, type: 2}
  - m_RefCount: 1
    m_Data: {fileID: 11400000, guid: 33e2f93c2cd4096448de8beb56ebe0fc, type: 2}
  - m_RefCount: 1
    m_Data: {fileID: 11400000, guid: b4279b184ef3cb04eb92c82cdf216f2a, type: 2}
  - m_RefCount: 1
    m_Data: {fileID: 11400000, guid: 11c4b4a938f93c24da232dba339b66ac, type: 2}
  - m_RefCount: 1
    m_Data: {fileID: 11400000, guid: e148391fe202f454e9313b150286726a, type: 2}
  - m_RefCount: 1
    m_Data: {fileID: 11400000, guid: 1181de42b372b974d99d0e94e15300d8, type: 2}
  - m_RefCount: 1
    m_Data: {fileID: 11400000, guid: c079203bb96b54d42861088da5ed903f, type: 2}
  - m_RefCount: 1
    m_Data: {fileID: 11400000, guid: d3b947dc5fbe3a246a19401f4972773d, type: 2}
  - m_RefCount: 1
    m_Data: {fileID: 11400000, guid: 99f9b9fbf354ec445814eb70c9ead3ae, type: 2}
  - m_RefCount: 1
    m_Data: {fileID: 11400000, guid: e8eb75f1be2720d4aa6772af33f108c8, type: 2}
  - m_RefCount: 1
    m_Data: {fileID: 11400000, guid: 4bec4501b390cb444bbc1649b3be86c8, type: 2}
  - m_RefCount: 1
    m_Data: {fileID: 11400000, guid: d06e79540ee8a444aa61ab427207b976, type: 2}
  - m_RefCount: 1
    m_Data: {fileID: 11400000, guid: 41d14d59ae065374b8c304b80f0fbd58, type: 2}
  - m_RefCount: 1
    m_Data: {fileID: 11400000, guid: a23cdbd675f051e4c8407ee7504720f4, type: 2}
  - m_RefCount: 1
    m_Data: {fileID: 11400000, guid: ae94ab7e16ce5a141ae2c1c510c0ec74, type: 2}
  - m_RefCount: 1
    m_Data: {fileID: 11400000, guid: 36c90a88d0f2e70419342ea3d172e3fa, type: 2}
  - m_RefCount: 1
    m_Data: {fileID: 11400000, guid: 002098e3c4114a64ba8dafc051745ca6, type: 2}
  - m_RefCount: 1
    m_Data: {fileID: 11400000, guid: 11526110d49eaea4ea365ed28b830b34, type: 2}
  - m_RefCount: 1
    m_Data: {fileID: 11400000, guid: a8106d1b504288d48ae1388f210d911b, type: 2}
  - m_RefCount: 1
    m_Data: {fileID: 11400000, guid: 5abfaccae48b13146b9939f1d9ea1a84, type: 2}
  - m_RefCount: 1
    m_Data: {fileID: 11400000, guid: dabad0226d1ad0a45b6ae59e045f5bfa, type: 2}
  - m_RefCount: 1
    m_Data: {fileID: 11400000, guid: ef6e0daaa8f64d84f99f022aa22ec0b4, type: 2}
  - m_RefCount: 1
    m_Data: {fileID: 11400000, guid: 3018b7150bf5a5f48991377a2c2ae6fd, type: 2}
  - m_RefCount: 1
    m_Data: {fileID: 11400000, guid: 05263421cb44ddd4c9b91b19cb6f9176, type: 2}
  - m_RefCount: 1
    m_Data: {fileID: 11400000, guid: 52799bfbc84d67240954abf0a558aec9, type: 2}
  - m_RefCount: 1
    m_Data: {fileID: 11400000, guid: 6493ce5029f617e49ba7a54dff3e4ef4, type: 2}
  - m_RefCount: 1
    m_Data: {fileID: 11400000, guid: 3cfdb3d2bf492cd4ca88c8a656a9878f, type: 2}
  - m_RefCount: 1
    m_Data: {fileID: 11400000, guid: dc1295846a5c708499d4e3c9a15d2004, type: 2}
  - m_RefCount: 1
    m_Data: {fileID: 11400000, guid: f011d7f64d72afc4fa4f95854538c5a6, type: 2}
  - m_RefCount: 1
    m_Data: {fileID: 11400000, guid: 0e735c29691a1de4d98ec8c009ac9856, type: 2}
  - m_RefCount: 1
    m_Data: {fileID: 11400000, guid: 0124fcfff577648478f26b706e75db9b, type: 2}
  - m_RefCount: 1
    m_Data: {fileID: 11400000, guid: 40cc8c48b4575f544b274683c83534bd, type: 2}
  - m_RefCount: 1
    m_Data: {fileID: 11400000, guid: 1fc8b46a1cbda3a4982e9f2968fa91a2, type: 2}
  - m_RefCount: 1
    m_Data: {fileID: 11400000, guid: c4e16d2efb701774e9a18ba7ad9c697d, type: 2}
  - m_RefCount: 1
    m_Data: {fileID: 11400000, guid: 6ca1dcbf3a4c18e458b502305ec25c00, type: 2}
  - m_RefCount: 1
    m_Data: {fileID: 11400000, guid: 77a38a4b5c1b16b42acf049246ab1305, type: 2}
  - m_RefCount: 1
    m_Data: {fileID: 11400000, guid: b0c7a5db5cb0c0641bd7b419565dce54, type: 2}
  - m_RefCount: 1
    m_Data: {fileID: 11400000, guid: 8daa0882011f6ef4aa389da5d798efd3, type: 2}
  - m_RefCount: 1
    m_Data: {fileID: 11400000, guid: f0a6841225259eb46a836f873550bf0e, type: 2}
  - m_RefCount: 1
    m_Data: {fileID: 11400000, guid: 26d2082c7c8b26d44bb1579953244391, type: 2}
  - m_RefCount: 1
    m_Data: {fileID: 11400000, guid: cbf0d0a7d8008dc4ba69992b750be302, type: 2}
  - m_RefCount: 1
    m_Data: {fileID: 11400000, guid: c4833ce68c6475243909a7db0913c50a, type: 2}
  - m_RefCount: 1
    m_Data: {fileID: 11400000, guid: 30534a8c4663571439264f5e0d5e79ad, type: 2}
  - m_RefCount: 1
    m_Data: {fileID: 11400000, guid: 340696b3823580647bc91f45192d2b0a, type: 2}
  - m_RefCount: 1
    m_Data: {fileID: 11400000, guid: 72b6e751e0243df42bbabfe22b315102, type: 2}
  - m_RefCount: 1
    m_Data: {fileID: 11400000, guid: 44bf07f2d0748ce479955bc964232adf, type: 2}
  - m_RefCount: 1
    m_Data: {fileID: 11400000, guid: 854bb4e90119e19469a1c342519bc96c, type: 2}
  - m_RefCount: 1
    m_Data: {fileID: 11400000, guid: d392dd0b2cad5b0439e50a905799644d, type: 2}
  - m_RefCount: 1
    m_Data: {fileID: 11400000, guid: 4e10b57e2793e7b4c9a8b9628461211c, type: 2}
  - m_RefCount: 1
    m_Data: {fileID: 11400000, guid: 39b10b6b89b01994d8ed9caf01072197, type: 2}
  m_TileSpriteArray:
  - m_RefCount: 1
    m_Data: {fileID: 21300010, guid: ec3c3de126ea2b2408419603e2bc6d8a, type: 3}
  - m_RefCount: 1
    m_Data: {fileID: 21300040, guid: ec3c3de126ea2b2408419603e2bc6d8a, type: 3}
  - m_RefCount: 1
    m_Data: {fileID: 21300232, guid: ec3c3de126ea2b2408419603e2bc6d8a, type: 3}
  - m_RefCount: 1
    m_Data: {fileID: 21300230, guid: ec3c3de126ea2b2408419603e2bc6d8a, type: 3}
  - m_RefCount: 1
    m_Data: {fileID: 21300262, guid: ec3c3de126ea2b2408419603e2bc6d8a, type: 3}
  - m_RefCount: 1
    m_Data: {fileID: 21300200, guid: ec3c3de126ea2b2408419603e2bc6d8a, type: 3}
  - m_RefCount: 1
    m_Data: {fileID: 21300166, guid: ec3c3de126ea2b2408419603e2bc6d8a, type: 3}
  - m_RefCount: 1
    m_Data: {fileID: 21300168, guid: ec3c3de126ea2b2408419603e2bc6d8a, type: 3}
  - m_RefCount: 2
    m_Data: {fileID: 21300264, guid: ec3c3de126ea2b2408419603e2bc6d8a, type: 3}
  - m_RefCount: 2
    m_Data: {fileID: 21300296, guid: ec3c3de126ea2b2408419603e2bc6d8a, type: 3}
  - m_RefCount: 2
    m_Data: {fileID: 21300328, guid: ec3c3de126ea2b2408419603e2bc6d8a, type: 3}
  - m_RefCount: 1
    m_Data: {fileID: 21300496, guid: ec3c3de126ea2b2408419603e2bc6d8a, type: 3}
  - m_RefCount: 1
    m_Data: {fileID: 21300498, guid: ec3c3de126ea2b2408419603e2bc6d8a, type: 3}
  - m_RefCount: 1
    m_Data: {fileID: 21300502, guid: ec3c3de126ea2b2408419603e2bc6d8a, type: 3}
  - m_RefCount: 1
    m_Data: {fileID: 21300472, guid: ec3c3de126ea2b2408419603e2bc6d8a, type: 3}
  - m_RefCount: 1
    m_Data: {fileID: 21300500, guid: ec3c3de126ea2b2408419603e2bc6d8a, type: 3}
  - m_RefCount: 1
    m_Data: {fileID: 21300408, guid: ec3c3de126ea2b2408419603e2bc6d8a, type: 3}
  - m_RefCount: 1
    m_Data: {fileID: 21300402, guid: ec3c3de126ea2b2408419603e2bc6d8a, type: 3}
  - m_RefCount: 1
    m_Data: {fileID: 21300432, guid: ec3c3de126ea2b2408419603e2bc6d8a, type: 3}
  - m_RefCount: 1
    m_Data: {fileID: 21300464, guid: ec3c3de126ea2b2408419603e2bc6d8a, type: 3}
  - m_RefCount: 1
    m_Data: {fileID: 21300424, guid: ec3c3de126ea2b2408419603e2bc6d8a, type: 3}
  - m_RefCount: 1
    m_Data: {fileID: 21300392, guid: ec3c3de126ea2b2408419603e2bc6d8a, type: 3}
  - m_RefCount: 1
    m_Data: {fileID: 21300400, guid: ec3c3de126ea2b2408419603e2bc6d8a, type: 3}
  - m_RefCount: 1
    m_Data: {fileID: 21300398, guid: ec3c3de126ea2b2408419603e2bc6d8a, type: 3}
  - m_RefCount: 1
    m_Data: {fileID: 21300394, guid: ec3c3de126ea2b2408419603e2bc6d8a, type: 3}
  - m_RefCount: 1
    m_Data: {fileID: 21300396, guid: ec3c3de126ea2b2408419603e2bc6d8a, type: 3}
  - m_RefCount: 1
    m_Data: {fileID: 21300360, guid: ec3c3de126ea2b2408419603e2bc6d8a, type: 3}
  - m_RefCount: 1
    m_Data: {fileID: 21300326, guid: ec3c3de126ea2b2408419603e2bc6d8a, type: 3}
  - m_RefCount: 1
    m_Data: {fileID: 21300324, guid: ec3c3de126ea2b2408419603e2bc6d8a, type: 3}
  - m_RefCount: 1
    m_Data: {fileID: 21300488, guid: ec3c3de126ea2b2408419603e2bc6d8a, type: 3}
  - m_RefCount: 1
    m_Data: {fileID: 21300456, guid: ec3c3de126ea2b2408419603e2bc6d8a, type: 3}
  - m_RefCount: 1
    m_Data: {fileID: 21300486, guid: ec3c3de126ea2b2408419603e2bc6d8a, type: 3}
  - m_RefCount: 1
    m_Data: {fileID: 21300484, guid: ec3c3de126ea2b2408419603e2bc6d8a, type: 3}
  - m_RefCount: 1
    m_Data: {fileID: 21300292, guid: ec3c3de126ea2b2408419603e2bc6d8a, type: 3}
  - m_RefCount: 1
    m_Data: {fileID: 21300294, guid: ec3c3de126ea2b2408419603e2bc6d8a, type: 3}
  - m_RefCount: 1
    m_Data: {fileID: 21300204, guid: ec3c3de126ea2b2408419603e2bc6d8a, type: 3}
  - m_RefCount: 1
    m_Data: {fileID: 21300202, guid: ec3c3de126ea2b2408419603e2bc6d8a, type: 3}
  - m_RefCount: 1
    m_Data: {fileID: 21300236, guid: ec3c3de126ea2b2408419603e2bc6d8a, type: 3}
  - m_RefCount: 1
    m_Data: {fileID: 21300234, guid: ec3c3de126ea2b2408419603e2bc6d8a, type: 3}
  - m_RefCount: 1
    m_Data: {fileID: 21300266, guid: ec3c3de126ea2b2408419603e2bc6d8a, type: 3}
  - m_RefCount: 1
    m_Data: {fileID: 21300268, guid: ec3c3de126ea2b2408419603e2bc6d8a, type: 3}
  - m_RefCount: 1
    m_Data: {fileID: 21300466, guid: ec3c3de126ea2b2408419603e2bc6d8a, type: 3}
  - m_RefCount: 1
    m_Data: {fileID: 21300414, guid: ec3c3de126ea2b2408419603e2bc6d8a, type: 3}
  - m_RefCount: 1
    m_Data: {fileID: 21300416, guid: ec3c3de126ea2b2408419603e2bc6d8a, type: 3}
  - m_RefCount: 1
    m_Data: {fileID: 21300418, guid: ec3c3de126ea2b2408419603e2bc6d8a, type: 3}
  - m_RefCount: 1
    m_Data: {fileID: 21300446, guid: ec3c3de126ea2b2408419603e2bc6d8a, type: 3}
  - m_RefCount: 1
    m_Data: {fileID: 21300482, guid: ec3c3de126ea2b2408419603e2bc6d8a, type: 3}
  - m_RefCount: 1
    m_Data: {fileID: 21300450, guid: ec3c3de126ea2b2408419603e2bc6d8a, type: 3}
  - m_RefCount: 1
    m_Data: {fileID: 21300480, guid: ec3c3de126ea2b2408419603e2bc6d8a, type: 3}
  - m_RefCount: 1
    m_Data: {fileID: 21300478, guid: ec3c3de126ea2b2408419603e2bc6d8a, type: 3}
  - m_RefCount: 1
    m_Data: {fileID: 21300448, guid: ec3c3de126ea2b2408419603e2bc6d8a, type: 3}
  - m_RefCount: 1
    m_Data: {fileID: 21300410, guid: ec3c3de126ea2b2408419603e2bc6d8a, type: 3}
  - m_RefCount: 1
    m_Data: {fileID: 21300412, guid: ec3c3de126ea2b2408419603e2bc6d8a, type: 3}
  - m_RefCount: 1
    m_Data: {fileID: 21300442, guid: ec3c3de126ea2b2408419603e2bc6d8a, type: 3}
  - m_RefCount: 1
    m_Data: {fileID: 21300444, guid: ec3c3de126ea2b2408419603e2bc6d8a, type: 3}
  - m_RefCount: 1
    m_Data: {fileID: 21300476, guid: ec3c3de126ea2b2408419603e2bc6d8a, type: 3}
  - m_RefCount: 1
    m_Data: {fileID: 21300474, guid: ec3c3de126ea2b2408419603e2bc6d8a, type: 3}
  - m_RefCount: 1
    m_Data: {fileID: 21300490, guid: ec3c3de126ea2b2408419603e2bc6d8a, type: 3}
  - m_RefCount: 1
    m_Data: {fileID: 21300492, guid: ec3c3de126ea2b2408419603e2bc6d8a, type: 3}
  - m_RefCount: 1
    m_Data: {fileID: 21300494, guid: ec3c3de126ea2b2408419603e2bc6d8a, type: 3}
  - m_RefCount: 1
    m_Data: {fileID: 21300458, guid: ec3c3de126ea2b2408419603e2bc6d8a, type: 3}
  - m_RefCount: 1
    m_Data: {fileID: 21300460, guid: ec3c3de126ea2b2408419603e2bc6d8a, type: 3}
  - m_RefCount: 1
    m_Data: {fileID: 21300462, guid: ec3c3de126ea2b2408419603e2bc6d8a, type: 3}
  - m_RefCount: 1
    m_Data: {fileID: 21300238, guid: ec3c3de126ea2b2408419603e2bc6d8a, type: 3}
  - m_RefCount: 1
    m_Data: {fileID: 21300240, guid: ec3c3de126ea2b2408419603e2bc6d8a, type: 3}
  - m_RefCount: 1
    m_Data: {fileID: 21300242, guid: ec3c3de126ea2b2408419603e2bc6d8a, type: 3}
  - m_RefCount: 1
    m_Data: {fileID: 21300210, guid: ec3c3de126ea2b2408419603e2bc6d8a, type: 3}
  - m_RefCount: 1
    m_Data: {fileID: 21300208, guid: ec3c3de126ea2b2408419603e2bc6d8a, type: 3}
  - m_RefCount: 1
    m_Data: {fileID: 21300206, guid: ec3c3de126ea2b2408419603e2bc6d8a, type: 3}
  - m_RefCount: 1
    m_Data: {fileID: 21300272, guid: ec3c3de126ea2b2408419603e2bc6d8a, type: 3}
  - m_RefCount: 1
    m_Data: {fileID: 21300274, guid: ec3c3de126ea2b2408419603e2bc6d8a, type: 3}
  - m_RefCount: 1
    m_Data: {fileID: 21300270, guid: ec3c3de126ea2b2408419603e2bc6d8a, type: 3}
  - m_RefCount: 1
    m_Data: {fileID: 21300356, guid: ec3c3de126ea2b2408419603e2bc6d8a, type: 3}
  - m_RefCount: 1
    m_Data: {fileID: 21300358, guid: ec3c3de126ea2b2408419603e2bc6d8a, type: 3}
  - m_RefCount: 1
    m_Data: {fileID: 21300388, guid: ec3c3de126ea2b2408419603e2bc6d8a, type: 3}
  - m_RefCount: 1
    m_Data: {fileID: 21300390, guid: ec3c3de126ea2b2408419603e2bc6d8a, type: 3}
  - m_RefCount: 1
    m_Data: {fileID: 21300426, guid: ec3c3de126ea2b2408419603e2bc6d8a, type: 3}
  - m_RefCount: 1
    m_Data: {fileID: 21300428, guid: ec3c3de126ea2b2408419603e2bc6d8a, type: 3}
  - m_RefCount: 1
    m_Data: {fileID: 21300430, guid: ec3c3de126ea2b2408419603e2bc6d8a, type: 3}
  - m_RefCount: 1
    m_Data: {fileID: 21300420, guid: ec3c3de126ea2b2408419603e2bc6d8a, type: 3}
  - m_RefCount: 1
    m_Data: {fileID: 21300422, guid: ec3c3de126ea2b2408419603e2bc6d8a, type: 3}
  - m_RefCount: 1
    m_Data: {fileID: 21300452, guid: ec3c3de126ea2b2408419603e2bc6d8a, type: 3}
  - m_RefCount: 1
    m_Data: {fileID: 21300454, guid: ec3c3de126ea2b2408419603e2bc6d8a, type: 3}
  - m_RefCount: 1
    m_Data: {fileID: 21300182, guid: ec3c3de126ea2b2408419603e2bc6d8a, type: 3}
  m_TileMatrixArray:
  - m_RefCount: 87
    m_Data:
      e00: 1
      e01: 0
      e02: 0
      e03: 0
      e10: 0
      e11: 1
      e12: 0
      e13: 0
      e20: 0
      e21: 0
      e22: 1
      e23: 0
      e30: 0
      e31: 0
      e32: 0
      e33: 1
  m_TileColorArray:
  - m_RefCount: 87
    m_Data: {r: 1, g: 1, b: 1, a: 1}
  m_AnimationFrameRate: 1
  m_Color: {r: 1, g: 1, b: 1, a: 1}
  m_Origin: {x: -11, y: -16, z: 0}
  m_Size: {x: 21, y: 18, z: 1}
  m_TileAnchor: {x: 0.5, y: 0.5, z: 0}
  m_TileOrientation: 0
  m_TileOrientationMatrix:
    e00: 1
    e01: 0
    e02: 0
    e03: 0
    e10: 0
    e11: 1
    e12: 0
    e13: 0
    e20: 0
    e21: 0
    e22: 1
    e23: 0
    e30: 0
    e31: 0
    e32: 0
    e33: 1
