{
  "array": [
    {
      "type": 0,
      "isLast": false,
      "content": [ "Bienvenido al tutorial. Para seguir leyendo debes pulsar espacio :)." ],
      "actions": []
    },
    {
      "type": 0,
      "isLast": true,
      "content": [ "Varios hermanos míos están por la ciudad jeje" ],
      "actions": []
    }
  ]
}